Exploring the Chambers–Le Baron corpus – pseudobibeR.fr
…
save(fc_udpipe_parsed, file = "../data/fc_udpipe_parsed.rda")

A parallel recipe using spaCy is already stored in _quarto/data/fc_spacy_parsed.rda.

Compute Biber features

features_ud <- biber(fc_udpipe_parsed, measure = "none", normalize = TRUE) |>
  left_join(french_corpus |> select(doc_id, discipline), by = "doc_id") |>
  select(doc_id, discipline, everything()) |>
  mutate(discipline = as.factor(discipline))

features_ud |>
  select(doc_id, discipline, f_01_past_tense, f_14_nominalizations, f_52_modal_possibility)

# A tibble: 159 × 5
   doc_id discipline f_01_past_tense f_14_nominalizations f_52_modal_possibility
   <chr>  <fct>                <dbl>                <dbl>                  <dbl>
 1 EC-EI… Economics             4                    58.7                   0   
 2 EC-EI… Economics             0                    73.0                   5.12
 3 EC-EI… Economics             1.32                 75.1                   3.95
 4 EC-EI… Economics             0                    65.6                   0   
 5 EC-EI… Economics             0                    42.2                   7.24
 6 EC-EI… Economics             2.48                 50.8                  13.6 
 7 EC-EI… Economics             0                    62.3                   3.74
 8 EC-EP… Economics             0                    78.0                   5.47
 9 EC-EP… Economics             0                    99.7                   2.66
10 EC-EP… Economics             1.31                 77.2                   6.54
# ℹ 149 more rows
…
